Intro R
…
Besides, -> is also valid and it is used (more intuitive) when assigning pipes
result to variables.

library(dplyr)

starwars %>%
  dplyr::mutate(bmi = mass / ((height / 100) ^ 2)) %>%
  dplyr::filter(!is.na(bmi)) %>%
  dplyr::group_by(species) %>%
  dplyr::summarise(bmi = mean(bmi)) %>%
  dplyr::arrange(desc(bmi)) -> x

x

## # A tibble: 32 × 2
##    species          bmi
##    <chr>          <dbl>
##  1 Hutt           443. 
##  2 Vulptereen      50.9
##  3 Yoda's species  39.0
##  4 Kaleesh         34.1
##  5 Droid           32.7
##  6 Dug             31.9
##  7 Trandoshan      31.3
##  8 Sullustan       26.6
##  9 Zabrak          26.1
## 10 Besalisk        26.0
## # … with 22 more rows
…
